digraph prof {
    node [style=filled][color=lightsteelblue2][shape=ellipse];
    rankdir=BT;

    myProfessor -> vivoFacultyMember;
    myProfessor -> schemaPerson;
    myAssistantProfessor -> myProfessor;
    myAssociateProfessor -> myProfessor;
    myFullProfessor -> myProfessor;
    myVisitingProfessor -> myProfessor;

    myProfessor [ label="csd:Professor"];
    myAssistantProfessor [ label="csd:AssistantProfessor"];
    myAssociateProfessor [ label="csd:AssociateProfessor"];
    myFullProfessor [ label="csd:FullProfessor"];
    myVisitingProfessor [ label="csd:VisitingProfessor"];
    schemaPerson [ label="schema:Person"][color=palevioletred3];
    vivoFacultyMember [ label="vivo:FacultyMember"][color=steelblue3];

    myAdministrativeStaff -> vivoFacultyMember;
    myAdministrativeStaff -> schemaPerson;
    mySecretaryStaff -> myAdministrativeStaff;
    myLabStaff -> myAdministrativeStaff;
    mySystemStaff -> myAdministrativeStaff;

    myAdministrativeStaff [ label="csd:AdministrativeStaff"];
    mySecretaryStaff [ label="csd:SecretaryStaff"];
    myLabStaff [ label="csd:LabStaff"];
    mySystemStaff [ label="csd:SystemStaff"];
}